Benchmark,Alpha=0.003,Alpha=1,Alpha=0.03,Alpha=0,Alpha = 0.3
bs,0.00148,0.00146,0.00149,0.001586,0.00152
km,0.00154,0.00142,0.001573,0.001599,0.00157
bfs,1,1,1,1,1
fir,0.001391,0.00153,0.001534,0.0014719,0.00147
flw,0.0015088,0.00143,0.00143,0.00154,0.00142
mt,0.001427,0.00151,0.00144,0.00144,0.00145
pr,1,1,1,1,1
fw,0.001508,0.00143,0.00142,0.001528,0.0015
st,0.0014718,0.00154,0.00147,0.00152,0.00148
sc,0.001357,0.00141,0.00141,0.001728,0.001356